<svg xmlns="http://www.w3.org/2000/svg" width="15.52" height="8.847" viewBox="0 0 15.52 8.847">
  <g id="arrow-point-to-right_3_" data-name="arrow-point-to-right (3)" transform="translate(15.52 -97.139) rotate(90)">
    <path id="Path_2" data-name="Path 2" d="M105.667,8.528,98.994,15.2a1.087,1.087,0,0,1-1.537-1.537l5.905-5.9-5.9-5.9A1.087,1.087,0,0,1,98.994.318l6.673,6.673a1.087,1.087,0,0,1,0,1.537Z" fill="#2ac04f"/>
  </g>
</svg>
