<svg id="_01-Icons_48px_Facebook_White" data-name="01-Icons/48px/Facebook/White" xmlns="http://www.w3.org/2000/svg" width="17.885" height="17.885" viewBox="0 0 17.885 17.885">
  <path id="Facebook" d="M9.553,17.885H.987A.987.987,0,0,1,0,16.9V.987A.987.987,0,0,1,.987,0H16.9a.987.987,0,0,1,.987.987V16.9a.987.987,0,0,1-.987.987H12.34V10.959h2.325l.348-2.7H12.34V6.536c0-.781.217-1.314,1.338-1.314h1.429V2.808A19.107,19.107,0,0,0,13.024,2.7,3.252,3.252,0,0,0,9.553,6.269V8.26H7.222v2.7H9.553v6.926Z" fill="#636363" fill-rule="evenodd"/>
</svg>
